\relax 
\@writefile{toc}{\contentsline {chapter}{\numberline {1}Wiederholung 2019 bis 2020}{I}\protected@file@percent }
\@writefile{lof}{\addvspace {10\p@ }}
\@writefile{lot}{\addvspace {10\p@ }}
\@input{tex/wiederholung19_20.aux}
\@writefile{toc}{\contentsline {chapter}{\numberline {2}Kreis}{IX}\protected@file@percent }
\@writefile{lof}{\addvspace {10\p@ }}
\@writefile{lot}{\addvspace {10\p@ }}
\@input{tex/kreis.aux}
