\relax 
\providecommand \oddpage@label [2]{}
\@writefile{toc}{\contentsline {section}{\numberline {1}Die Rede: }{I}\protected@file@percent }
\@writefile{toc}{\contentsline {paragraph}{}{I}\protected@file@percent }
\@writefile{toc}{\contentsline {paragraph}{}{I}\protected@file@percent }
\@writefile{toc}{\contentsline {paragraph}{}{I}\protected@file@percent }
\@writefile{toc}{\contentsline {paragraph}{}{I}\protected@file@percent }
\@writefile{toc}{\contentsline {paragraph}{}{II}\protected@file@percent }
\@writefile{toc}{\contentsline {paragraph}{}{II}\protected@file@percent }
\@writefile{toc}{\contentsline {paragraph}{}{II}\protected@file@percent }
\@writefile{toc}{\contentsline {paragraph}{Danke.}{II}\protected@file@percent }
