\relax 
\providecommand \oddpage@label [2]{}
\@writefile{toc}{\contentsline {chapter}{\numberline {1}Atome}{I}\protected@file@percent }
\@writefile{lof}{\addvspace {10\p@ }}
\@writefile{lot}{\addvspace {10\p@ }}
\@input{tex/atome.aux}
