\relax 
\@nameuse{bbl@beforestart}
\catcode `:\active 
\catcode `;\active 
\catcode `!\active 
\catcode `?\active 
\providecommand \oddpage@label [2]{}
\babel@aux{french}{}
\@writefile{toc}{\contentsline {section}{\numberline {1}Questions avec ou sans est-ce que}{I}\protected@file@percent }
\@writefile{toc}{\contentsline {subsection}{\numberline {1.1}Entscheidungsfrage}{I}\protected@file@percent }
\@writefile{toc}{\contentsline {paragraph}{}{I}\protected@file@percent }
\@writefile{toc}{\contentsline {subsection}{\numberline {1.2}Ergänzungsfrage}{I}\protected@file@percent }
\@writefile{toc}{\contentsline {paragraph}{}{I}\protected@file@percent }
\@writefile{toc}{\contentsline {subsection}{\numberline {1.3}Beispiele:}{I}\protected@file@percent }
\@writefile{toc}{\contentsline {section}{\numberline {2}Le pronom objet y}{II}\protected@file@percent }
\@writefile{toc}{\contentsline {paragraph}{y ersetzt à/dans/en/chez + Ort und steht vor dem konjugierten Verb}{II}\protected@file@percent }
\@writefile{toc}{\contentsline {subsection}{\numberline {2.1}Beispiele:}{II}\protected@file@percent }
\@writefile{toc}{\contentsline {section}{\numberline {3}Dialog: réservation d'une table}{II}\protected@file@percent }
\@writefile{toc}{\contentsline {section}{\numberline {4}Dialogue à table}{II}\protected@file@percent }
\@writefile{toc}{\contentsline {section}{\numberline {5}Dialogue à table(se plaindre)}{III}\protected@file@percent }
\@writefile{toc}{\contentsline {section}{\numberline {6}La cuisine autrichienne}{III}\protected@file@percent }
\@writefile{toc}{\contentsline {paragraph}{}{III}\protected@file@percent }
\@writefile{toc}{\contentsline {paragraph}{}{IV}\protected@file@percent }
\@writefile{toc}{\contentsline {paragraph}{}{IV}\protected@file@percent }
