\relax 
\providecommand\hyper@newdestlabel[2]{}
\@writefile{toc}{\contentsline {section}{\numberline {0.1}Blutbild}{I}{section.0.1}\protected@file@percent }
\@writefile{toc}{\contentsline {subsubsection}{GOT und GPT}{I}{section*.1}\protected@file@percent }
\@writefile{toc}{\contentsline {subsubsection}{GGT}{I}{section*.2}\protected@file@percent }
\@writefile{toc}{\contentsline {subsubsection}{Alkalische Phosphate}{I}{section*.3}\protected@file@percent }
\@writefile{toc}{\contentsline {subsubsection}{LDH}{I}{section*.4}\protected@file@percent }
\@writefile{toc}{\contentsline {subsubsection}{CK}{II}{section*.5}\protected@file@percent }
\@writefile{toc}{\contentsline {subsubsection}{Lipase}{II}{section*.6}\protected@file@percent }
\@writefile{toc}{\contentsline {subsubsection}{Bilirubin}{III}{section*.7}\protected@file@percent }
\@writefile{toc}{\contentsline {subsubsection}{Cholesterin}{III}{section*.8}\protected@file@percent }
\@writefile{toc}{\contentsline {subsubsection}{HDL-Cholesterin}{V}{section*.9}\protected@file@percent }
\@writefile{toc}{\contentsline {subsubsection}{LDL-Cholesterin}{V}{section*.10}\protected@file@percent }
\@writefile{toc}{\contentsline {subsubsection}{Glucose/Traubenzucker}{V}{section*.11}\protected@file@percent }
\@writefile{toc}{\contentsline {subsubsection}{Glucose/Blutzucker}{VI}{section*.12}\protected@file@percent }
\@writefile{toc}{\contentsline {subsubsection}{Eisen}{VI}{section*.13}\protected@file@percent }
\@writefile{toc}{\contentsline {subsubsection}{Kalium}{VII}{section*.14}\protected@file@percent }
\@writefile{toc}{\contentsline {subsubsection}{Phosphor}{VIII}{section*.15}\protected@file@percent }
\@writefile{toc}{\contentsline {subsubsection}{CRP}{VIII}{section*.16}\protected@file@percent }
\@writefile{toc}{\contentsline {subsubsection}{Normotest}{VIII}{section*.17}\protected@file@percent }
\@writefile{toc}{\contentsline {subsection}{\numberline {0.1.1}Quellen}{IX}{subsection.0.1.1}\protected@file@percent }
\@setckpt{tex/laboranalyse}{
\setcounter{page}{10}
\setcounter{equation}{0}
\setcounter{enumi}{0}
\setcounter{enumii}{0}
\setcounter{enumiii}{0}
\setcounter{enumiv}{0}
\setcounter{footnote}{0}
\setcounter{mpfootnote}{0}
\setcounter{part}{0}
\setcounter{chapter}{0}
\setcounter{section}{1}
\setcounter{subsection}{1}
\setcounter{subsubsection}{0}
\setcounter{paragraph}{0}
\setcounter{subparagraph}{0}
\setcounter{figure}{0}
\setcounter{table}{0}
\setcounter{currfiledepth}{0}
\setcounter{Item}{0}
\setcounter{Hfootnote}{0}
\setcounter{bookmark@seq@number}{2}
\setcounter{section@level}{2}
}
