\relax 
\@writefile{toc}{\contentsline {section}{\numberline {1.1}Impressionismus}{II}\protected@file@percent }
\@writefile{toc}{\contentsline {section}{\numberline {1.2}Jugendstil}{II}\protected@file@percent }
\@writefile{toc}{\contentsline {subsection}{\numberline {1.2.1}Egon Schiele}{II}\protected@file@percent }
\@writefile{toc}{\contentsline {section}{\numberline {1.3}Expressionismus}{II}\protected@file@percent }
\@writefile{toc}{\contentsline {subsection}{\numberline {1.3.1}Die Nacht, Beckman}{III}\protected@file@percent }
\@writefile{toc}{\contentsline {section}{\numberline {1.4}Klassizismus}{III}\protected@file@percent }
\@writefile{toc}{\contentsline {section}{\numberline {1.5}Romantik}{III}\protected@file@percent }
\@writefile{toc}{\contentsline {section}{\numberline {1.6}Fauvismus}{IV}\protected@file@percent }
\@writefile{toc}{\contentsline {section}{\numberline {1.7}Kubismus}{IV}\protected@file@percent }
\@setckpt{tex/figuren}{
\setcounter{page}{5}
\setcounter{equation}{0}
\setcounter{enumi}{0}
\setcounter{enumii}{0}
\setcounter{enumiii}{0}
\setcounter{enumiv}{0}
\setcounter{footnote}{0}
\setcounter{mpfootnote}{0}
\setcounter{part}{0}
\setcounter{chapter}{1}
\setcounter{section}{7}
\setcounter{subsection}{0}
\setcounter{subsubsection}{0}
\setcounter{paragraph}{0}
\setcounter{subparagraph}{0}
\setcounter{figure}{0}
\setcounter{table}{0}
\setcounter{currfiledepth}{0}
}
