\relax 
\@writefile{toc}{\contentsline {section}{\numberline {1.1}Sprachliche Stilmittel}{II}\protected@file@percent }
\@writefile{toc}{\contentsline {paragraph}{Finde 15 Stilfiguren und füge jeweils ein Beispiel an}{II}\protected@file@percent }
\@setckpt{tex/rhetorik}{
\setcounter{page}{3}
\setcounter{equation}{0}
\setcounter{enumi}{0}
\setcounter{enumii}{0}
\setcounter{enumiii}{0}
\setcounter{enumiv}{0}
\setcounter{footnote}{0}
\setcounter{mpfootnote}{0}
\setcounter{part}{0}
\setcounter{chapter}{1}
\setcounter{section}{1}
\setcounter{subsection}{0}
\setcounter{subsubsection}{0}
\setcounter{paragraph}{0}
\setcounter{subparagraph}{0}
\setcounter{figure}{0}
\setcounter{table}{0}
\setcounter{currfiledepth}{0}
}
