\relax 
\@writefile{toc}{\contentsline {section}{\numberline {1.1}Absolutismus}{II}\protected@file@percent }
\@writefile{toc}{\contentsline {subsection}{\numberline {1.1.1}Ludwig XIV (1683)}{II}\protected@file@percent }
\@writefile{toc}{\contentsline {section}{\numberline {1.2}Österreichs Aufstieg zur Großmacht}{II}\protected@file@percent }
\@writefile{toc}{\contentsline {subsection}{\numberline {1.2.1}Leopold I}{II}\protected@file@percent }
\@writefile{toc}{\contentsline {subsection}{\numberline {1.2.2}Türkenbelagerung 1683}{II}\protected@file@percent }
\@writefile{toc}{\contentsline {subsection}{\numberline {1.2.3}Angriffskrieg Österreichs}{II}\protected@file@percent }
\@setckpt{tex/habsburgermonarchie}{
\setcounter{page}{3}
\setcounter{equation}{0}
\setcounter{enumi}{0}
\setcounter{enumii}{0}
\setcounter{enumiii}{0}
\setcounter{enumiv}{0}
\setcounter{footnote}{0}
\setcounter{mpfootnote}{0}
\setcounter{part}{0}
\setcounter{chapter}{1}
\setcounter{section}{2}
\setcounter{subsection}{3}
\setcounter{subsubsection}{0}
\setcounter{paragraph}{0}
\setcounter{subparagraph}{0}
\setcounter{figure}{0}
\setcounter{table}{0}
\setcounter{currfiledepth}{0}
}
