\relax 
\@writefile{toc}{\contentsline {section}{\numberline {1.1}Quadratische Gleichung}{II}\protected@file@percent }
\@writefile{toc}{\contentsline {subsection}{\numberline {1.1.1}Berechne $x$ aus der Formel $5x^{2}-320 = 0$}{II}\protected@file@percent }
\@writefile{toc}{\contentsline {subsection}{\numberline {1.1.2}Berechne $x$ aus der Formel $1x^{2}+1/4x-3/8=0$}{II}\protected@file@percent }
\@writefile{toc}{\contentsline {subsection}{\numberline {1.1.3}Berechne aus den Werten $x_{1} = -3$ und $x_{2} = -8$ eine Formel $ax^{2} + bx + c = 0$}{II}\protected@file@percent }
\@writefile{toc}{\contentsline {section}{\numberline {1.2}Quadratische Funktionen}{III}\protected@file@percent }
\@writefile{toc}{\contentsline {subsection}{\numberline {1.2.1}Berechne die Nullstelle der Funktion $f_{x} = 3x^{2} - 7x + 4.5$}{III}\protected@file@percent }
\@writefile{toc}{\contentsline {subsection}{\numberline {1.2.2}Berechne genau eine Nullstelle der Formel $f_{x} = -5x^{2} - 12x + c$}{III}\protected@file@percent }
\@writefile{toc}{\contentsline {subsection}{\numberline {1.2.3}Berechne zwei Nullstellen aus $x_{N,1}$, $x_{N,2}$ und dem Punkt $P = \begin  {pmatrix} 4 \\ 3 \end  {pmatrix}$}{IV}\protected@file@percent }
\@writefile{toc}{\contentsline {section}{\numberline {1.3}Quadratische Formeln}{IV}\protected@file@percent }
\@writefile{toc}{\contentsline {subsection}{\numberline {1.3.1}Berechne $x$ aus $2x^{2} - 8x - 4 = 4$}{IV}\protected@file@percent }
\@writefile{toc}{\contentsline {subsection}{\numberline {1.3.2}Berechne die Scheitelform der Formel $f_{x} = 2x^{2} - 12x + 13$}{V}\protected@file@percent }
\@writefile{toc}{\contentsline {subsection}{\numberline {1.3.3}Berechne $x$ aus der Formel $ 2x^{2} - 12x = 32$}{V}\protected@file@percent }
\@writefile{toc}{\contentsline {section}{\numberline {1.4}Vektoren im 2-Dimensionalen Raum}{VI}\protected@file@percent }
\@writefile{toc}{\contentsline {subsection}{\numberline {1.4.1}Zeige, dass $\vec  {a} \parallel \vec  {b} \Rightarrow \vec  {a} = t + \vec  {b}$ gilt}{VI}\protected@file@percent }
\@writefile{toc}{\contentsline {subsection}{\numberline {1.4.2}Berechne $ |\vec  {PX}|$ durch die gegebenen Punkte $P = \begin  {pmatrix} 8 \\ -3 \end  {pmatrix}$ und $X = \begin  {pmatrix}x \\ y \end  {pmatrix}$}{VI}\protected@file@percent }
\@writefile{toc}{\contentsline {section}{\numberline {1.5}Hausübung -21.09.2020}{VII}\protected@file@percent }
\@writefile{toc}{\contentsline {subsection}{\numberline {1.5.1}Erledigt am \date {20.09.2020}}{VII}\protected@file@percent }
\@writefile{toc}{\contentsline {paragraph}{Leite die $abc$-Formel ($x = \frac  {-b \pm \sqrt  {b^{2} - 4ac}}{2a}$) aus $ ax^{2} + bx - c = 0$ durch quadratische Ergänzung ab}{VII}\protected@file@percent }
\@setckpt{tex/wiederholung19_20}{
\setcounter{page}{8}
\setcounter{equation}{0}
\setcounter{enumi}{0}
\setcounter{enumii}{0}
\setcounter{enumiii}{0}
\setcounter{enumiv}{0}
\setcounter{footnote}{0}
\setcounter{mpfootnote}{0}
\setcounter{part}{0}
\setcounter{chapter}{1}
\setcounter{section}{5}
\setcounter{subsection}{1}
\setcounter{subsubsection}{0}
\setcounter{paragraph}{0}
\setcounter{subparagraph}{0}
\setcounter{figure}{0}
\setcounter{table}{0}
\setcounter{parentequation}{0}
\setcounter{currfiledepth}{0}
}
