\relax 
\providecommand \oddpage@label [2]{}
\@writefile{toc}{\contentsline {chapter}{\numberline {1}Habsburger Monarchie}{I}\protected@file@percent }
\@writefile{lof}{\addvspace {10\p@ }}
\@writefile{lot}{\addvspace {10\p@ }}
\@input{tex/habsburgermonarchie.aux}
\@writefile{toc}{\contentsline {chapter}{\numberline {2}Amerika}{III}\protected@file@percent }
\@writefile{lof}{\addvspace {10\p@ }}
\@writefile{lot}{\addvspace {10\p@ }}
\@input{tex/amerika.aux}
