\relax 
\providecommand \oddpage@label [2]{}
\@writefile{toc}{\contentsline {section}{\numberline {1}LDH}{I}\protected@file@percent }
\@writefile{toc}{\contentsline {section}{\numberline {2}CK}{I}\protected@file@percent }
\@writefile{toc}{\contentsline {section}{\numberline {3}Lipase}{II}\protected@file@percent }
\@writefile{toc}{\contentsline {section}{\numberline {4}Bilirubin}{II}\protected@file@percent }
\@writefile{toc}{\contentsline {section}{\numberline {5}Cholesterin}{III}\protected@file@percent }
\@writefile{toc}{\contentsline {subsection}{\numberline {5.1}Cholesterin}{III}\protected@file@percent }
\@writefile{toc}{\contentsline {section}{\numberline {6}Glucose}{IV}\protected@file@percent }
\@writefile{toc}{\contentsline {section}{\numberline {7}Eisen}{IV}\protected@file@percent }
\@writefile{toc}{\contentsline {section}{\numberline {8}Kalium}{V}\protected@file@percent }
\@writefile{toc}{\contentsline {section}{\numberline {9}CRP}{V}\protected@file@percent }
