\relax 
\@nameuse{bbl@beforestart}
\catcode `:\active 
\catcode `;\active 
\catcode `!\active 
\catcode `?\active 
\providecommand \oddpage@label [2]{}
\babel@aux{french}{}
\@writefile{toc}{\contentsline {section}{\numberline {1}Impératif avec deux pronoms objets}{I}\protected@file@percent }
\@writefile{toc}{\contentsline {paragraph}{Zusammenfassung:}{I}\protected@file@percent }
\@writefile{toc}{\contentsline {paragraph}{Beispiele:}{I}\protected@file@percent }
\@writefile{toc}{\contentsline {section}{\numberline {2}Adverbes}{II}\protected@file@percent }
\@writefile{toc}{\contentsline {paragraph}{Zusammenfassung:}{II}\protected@file@percent }
\@writefile{toc}{\contentsline {paragraph}{Beispiele:}{II}\protected@file@percent }
\@writefile{toc}{\contentsline {section}{\numberline {3}Dialogue à la pharmacie}{II}\protected@file@percent }
\@writefile{toc}{\contentsline {section}{\numberline {4}Entrée de blog: Comment gérer le stress scolaire? p. 86 n° 21}{III}\protected@file@percent }
