\relax 
\providecommand \oddpage@label [2]{}
\@writefile{toc}{\contentsline {chapter}{\numberline {1}Allgemeines zum Werk}{I}\protected@file@percent }
\@writefile{lof}{\addvspace {10\p@ }}
\@writefile{lot}{\addvspace {10\p@ }}
\@writefile{toc}{\contentsline {section}{\numberline {1.1}Zusammenfassung}{I}\protected@file@percent }
\@writefile{toc}{\contentsline {paragraph}{Prolog im Himmel}{I}\protected@file@percent }
\@writefile{toc}{\contentsline {paragraph}{Auf der Erde}{I}\protected@file@percent }
\@writefile{toc}{\contentsline {section}{\numberline {1.2}Entstehungszeit}{I}\protected@file@percent }
\@writefile{toc}{\contentsline {section}{\numberline {1.3}Wieso kann man Faust einerseits als die Fortführung einer langen Rezeptionsgeschichte und zugleich als Begründer einer Tradition von Faust-Bearbeitungen bezeichnen}{II}\protected@file@percent }
\@writefile{toc}{\contentsline {chapter}{\numberline {2}Aufbau und sprachliche Gestaltung}{III}\protected@file@percent }
\@writefile{lof}{\addvspace {10\p@ }}
\@writefile{lot}{\addvspace {10\p@ }}
\@writefile{toc}{\contentsline {section}{\numberline {2.1}Bezug zwischen Gelehrten- und Gretchenhandlung}{III}\protected@file@percent }
\@writefile{toc}{\contentsline {chapter}{\numberline {3}Thematische Schwerpunkte}{V}\protected@file@percent }
\@writefile{lof}{\addvspace {10\p@ }}
\@writefile{lot}{\addvspace {10\p@ }}
\@writefile{toc}{\contentsline {section}{\numberline {3.1}Inwiefern kann man ``Es irrt der Mensch solange er strebt'' als Motto des gesamtes Dramas betrachten}{V}\protected@file@percent }
\@writefile{toc}{\contentsline {section}{\numberline {3.2}Spielt das Verhältnis von Wissenschaft und Ethik im ``Faust'' eine wichtige Rolle? Warum bzw. warum nicht?}{V}\protected@file@percent }
\@writefile{toc}{\contentsline {chapter}{\numberline {4}Figurenkonstellation}{VII}\protected@file@percent }
\@writefile{lof}{\addvspace {10\p@ }}
\@writefile{lot}{\addvspace {10\p@ }}
\@writefile{toc}{\contentsline {section}{\numberline {4.1}Faust und Gretchen}{VII}\protected@file@percent }
\@writefile{toc}{\contentsline {section}{\numberline {4.2}Faust und Mephistopheles}{VII}\protected@file@percent }
\@writefile{toc}{\contentsline {section}{\numberline {4.3}Mephistopheleses Auswirkungen auf Faust und Gretchen}{VII}\protected@file@percent }
\@writefile{toc}{\contentsline {chapter}{\numberline {5}Literaturtheorie}{IX}\protected@file@percent }
\@writefile{lof}{\addvspace {10\p@ }}
\@writefile{lot}{\addvspace {10\p@ }}
\@writefile{toc}{\contentsline {section}{\numberline {5.1}Warum ist Faust I eine Tragödie}{IX}\protected@file@percent }
\@writefile{toc}{\contentsline {section}{\numberline {5.2}Warum kann man die Figur Faust als einen gescheiterten ``Stürmer und Dränger'' bezeichnen?}{IX}\protected@file@percent }
\@writefile{toc}{\contentsline {chapter}{\numberline {6}Quellen}{XI}\protected@file@percent }
\@writefile{lof}{\addvspace {10\p@ }}
\@writefile{lot}{\addvspace {10\p@ }}
