\relax 
\providecommand \oddpage@label [2]{}
\@writefile{toc}{\contentsline {chapter}{\numberline {1}Das Immunsystem}{I}\protected@file@percent }
\@writefile{lof}{\addvspace {10\p@ }}
\@writefile{lot}{\addvspace {10\p@ }}
\@input{tex/Immunsystem.aux}
\@writefile{toc}{\contentsline {chapter}{\numberline {2}Allergien}{IX}\protected@file@percent }
\@writefile{lof}{\addvspace {10\p@ }}
\@writefile{lot}{\addvspace {10\p@ }}
\@input{tex/allergien.aux}
