\relax 
\@writefile{toc}{\contentsline {section}{\numberline {1.1}Teilchenmodelle}{II}\protected@file@percent }
\@writefile{toc}{\contentsline {subsection}{\numberline {1.1.1}Persönlichkeiten}{II}\protected@file@percent }
\@writefile{toc}{\contentsline {subsection}{\numberline {1.1.2}Rutherford}{II}\protected@file@percent }
\@writefile{toc}{\contentsline {subsection}{\numberline {1.1.3}Bohr}{II}\protected@file@percent }
\@writefile{toc}{\contentsline {paragraph}{Bohr'sches Atommodell}{II}\protected@file@percent }
\@writefile{toc}{\contentsline {subsection}{\numberline {1.1.4}Schalen}{II}\protected@file@percent }
\@writefile{toc}{\contentsline {subsection}{\numberline {1.1.5}Wellenmechanisches Atommodell}{II}\protected@file@percent }
\@writefile{toc}{\contentsline {paragraph}{Beispiel Kalium}{III}\protected@file@percent }
\@writefile{toc}{\contentsline {subsubsection}{Schrödinger}{III}\protected@file@percent }
\@writefile{toc}{\contentsline {subsection}{\numberline {1.1.6}Ionen}{III}\protected@file@percent }
\@writefile{toc}{\contentsline {section}{\numberline {1.2}Periodensystem}{III}\protected@file@percent }
\@writefile{toc}{\contentsline {subsubsection}{Gruppen}{IV}\protected@file@percent }
\@writefile{toc}{\contentsline {section}{\numberline {1.3}Bindungen}{IV}\protected@file@percent }
\@setckpt{tex/atome}{
\setcounter{page}{5}
\setcounter{equation}{0}
\setcounter{enumi}{0}
\setcounter{enumii}{0}
\setcounter{enumiii}{0}
\setcounter{enumiv}{0}
\setcounter{footnote}{0}
\setcounter{mpfootnote}{0}
\setcounter{part}{0}
\setcounter{chapter}{1}
\setcounter{section}{3}
\setcounter{subsection}{0}
\setcounter{subsubsection}{0}
\setcounter{paragraph}{0}
\setcounter{subparagraph}{0}
\setcounter{figure}{0}
\setcounter{table}{0}
\setcounter{currfiledepth}{0}
}
