\relax 
\@writefile{toc}{\contentsline {section}{\numberline {3.2}Coffee}{IX}\protected@file@percent }
\@writefile{toc}{\contentsline {subsection}{\numberline {3.2.1}Suspended Coffee}{IX}\protected@file@percent }
\@writefile{toc}{\contentsline {paragraph}{Suspended Coffee}{IX}\protected@file@percent }
\@writefile{toc}{\contentsline {section}{\numberline {3.3}Coffee Consumption}{IX}\protected@file@percent }
\@writefile{toc}{\contentsline {subsection}{\numberline {3.3.1}Graph Coffee/Tee Consumption in the UK}{IX}\protected@file@percent }
\@writefile{toc}{\contentsline {subsection}{\numberline {3.3.2}Things I remember from lesson 19.10.2020}{X}\protected@file@percent }
\@writefile{toc}{\contentsline {subsubsection}{Facts:}{X}\protected@file@percent }
\@writefile{toc}{\contentsline {subsubsection}{Words/Phrases}{X}\protected@file@percent }
\@setckpt{tex/coffee}{
\setcounter{page}{11}
\setcounter{equation}{0}
\setcounter{enumi}{0}
\setcounter{enumii}{0}
\setcounter{enumiii}{0}
\setcounter{enumiv}{0}
\setcounter{footnote}{0}
\setcounter{mpfootnote}{0}
\setcounter{part}{0}
\setcounter{chapter}{3}
\setcounter{section}{3}
\setcounter{subsection}{2}
\setcounter{subsubsection}{0}
\setcounter{paragraph}{0}
\setcounter{subparagraph}{0}
\setcounter{figure}{0}
\setcounter{table}{0}
\setcounter{currfiledepth}{0}
}
