\relax 
\@writefile{toc}{\contentsline {section}{\numberline {3.1}Current 52}{VI}\protected@file@percent }
\@writefile{toc}{\contentsline {subsection}{\numberline {3.1.1}ELM}{VI}\protected@file@percent }
\@writefile{toc}{\contentsline {paragraph}{Do you feel safe in your city?}{VI}\protected@file@percent }
\@writefile{toc}{\contentsline {paragraph}{Do you carry ID with you in your country}{VI}\protected@file@percent }
\@writefile{toc}{\contentsline {paragraph}{Why do you think so many people have attended protests around the world}{VI}\protected@file@percent }
\@writefile{toc}{\contentsline {paragraph}{Do people fear ypu because of your appearance?}{VI}\protected@file@percent }
\@writefile{toc}{\contentsline {paragraph}{Do you ever make judgements about others because of their appearance / clothes / ethnicity / age? Why?}{VI}\protected@file@percent }
\@writefile{toc}{\contentsline {paragraph}{Complete the sentences to the Article ``\textbf  {I have a voice}''}{VI}\protected@file@percent }
\@writefile{toc}{\contentsline {paragraph}{Match the People to Nebraska in the arictle BLM}{VI}\protected@file@percent }
\@writefile{toc}{\contentsline {paragraph}{Kickboxing as a muslim woman}{VII}\protected@file@percent }
\@writefile{toc}{\contentsline {paragraph}{}{VII}\protected@file@percent }
\@writefile{toc}{\contentsline {paragraph}{Words from lesson 12.10.2020}{VII}\protected@file@percent }
\@writefile{toc}{\contentsline {subsubsection}{Different Movements and Actions}{VIII}\protected@file@percent }
\@writefile{toc}{\contentsline {paragraph}{Freedom Riders}{VIII}\protected@file@percent }
\@writefile{toc}{\contentsline {paragraph}{Jim Crow laws}{VIII}\protected@file@percent }
\@writefile{toc}{\contentsline {paragraph}{The Underground Railroad}{VIII}\protected@file@percent }
\@writefile{toc}{\contentsline {paragraph}{The Civil Rights Act}{VIII}\protected@file@percent }
\@setckpt{tex/current}{
\setcounter{page}{9}
\setcounter{equation}{0}
\setcounter{enumi}{0}
\setcounter{enumii}{0}
\setcounter{enumiii}{0}
\setcounter{enumiv}{0}
\setcounter{footnote}{0}
\setcounter{mpfootnote}{0}
\setcounter{part}{0}
\setcounter{chapter}{3}
\setcounter{section}{1}
\setcounter{subsection}{1}
\setcounter{subsubsection}{0}
\setcounter{paragraph}{0}
\setcounter{subparagraph}{0}
\setcounter{figure}{0}
\setcounter{table}{0}
\setcounter{currfiledepth}{0}
}
