\relax 
\@writefile{toc}{\contentsline {section}{\numberline {1.1}Achievments of Space Exploration}{II}\protected@file@percent }
\@writefile{toc}{\contentsline {subsection}{\numberline {1.1.1}Timeline}{II}\protected@file@percent }
\@writefile{toc}{\contentsline {subsection}{\numberline {1.1.2}Hidden Figures}{II}\protected@file@percent }
\@writefile{toc}{\contentsline {subsubsection}{Shorted article about West Computers}{II}\protected@file@percent }
\@setckpt{tex/space}{
\setcounter{page}{3}
\setcounter{equation}{0}
\setcounter{enumi}{0}
\setcounter{enumii}{0}
\setcounter{enumiii}{0}
\setcounter{enumiv}{0}
\setcounter{footnote}{0}
\setcounter{mpfootnote}{0}
\setcounter{part}{0}
\setcounter{chapter}{1}
\setcounter{section}{1}
\setcounter{subsection}{2}
\setcounter{subsubsection}{0}
\setcounter{paragraph}{0}
\setcounter{subparagraph}{0}
\setcounter{figure}{0}
\setcounter{table}{0}
\setcounter{currfiledepth}{0}
}
