\relax 
\@writefile{toc}{\contentsline {section}{\numberline {2.1}Allergien}{X}\protected@file@percent }
\@writefile{toc}{\contentsline {subsection}{\numberline {2.1.1}Anaphylaktischer Schock}{X}\protected@file@percent }
\@setckpt{tex/allergien}{
\setcounter{page}{11}
\setcounter{equation}{0}
\setcounter{enumi}{0}
\setcounter{enumii}{0}
\setcounter{enumiii}{0}
\setcounter{enumiv}{0}
\setcounter{footnote}{0}
\setcounter{mpfootnote}{0}
\setcounter{part}{0}
\setcounter{chapter}{2}
\setcounter{section}{1}
\setcounter{subsection}{1}
\setcounter{subsubsection}{0}
\setcounter{paragraph}{0}
\setcounter{subparagraph}{0}
\setcounter{figure}{0}
\setcounter{table}{0}
\setcounter{currfiledepth}{0}
}
