\relax 
\@writefile{toc}{\contentsline {section}{\numberline {1.1}Unspezifische Immunsystem/Barrieren}{II}\protected@file@percent }
\@writefile{toc}{\contentsline {subsubsection}{Äußere Barrieren}{II}\protected@file@percent }
\@writefile{toc}{\contentsline {subsection}{\numberline {1.1.1}Aufgaben des Immunsystems}{II}\protected@file@percent }
\@writefile{toc}{\contentsline {subsection}{\numberline {1.1.2}Lymphatische Organe}{III}\protected@file@percent }
\@writefile{toc}{\contentsline {paragraph}{Ergänzung zum Buch Seite 140}{III}\protected@file@percent }
\@writefile{toc}{\contentsline {subsubsection}{Lymphknoten}{III}\protected@file@percent }
\@writefile{toc}{\contentsline {subsubsection}{Milz}{III}\protected@file@percent }
\@writefile{toc}{\contentsline {subsection}{\numberline {1.1.3}Upezifisches Immunsystem}{IV}\protected@file@percent }
\@writefile{toc}{\contentsline {subsubsection}{Antigene}{IV}\protected@file@percent }
\@writefile{toc}{\contentsline {subsubsection}{Leukozyten}{IV}\protected@file@percent }
\@writefile{toc}{\contentsline {paragraph}{Phagozyten}{IV}\protected@file@percent }
\@writefile{toc}{\contentsline {paragraph}{Natürliche Killerzellen}{IV}\protected@file@percent }
\@writefile{toc}{\contentsline {subsubsection}{Komplimentsystem}{IV}\protected@file@percent }
\@writefile{toc}{\contentsline {subsubsection}{Zykotine}{IV}\protected@file@percent }
\@writefile{toc}{\contentsline {section}{\numberline {1.2}spezifisches Immunsystem}{V}\protected@file@percent }
\@writefile{toc}{\contentsline {section}{\numberline {1.3}Zusammenwirken vom spezifischen und unspezifischen Immunsystem}{V}\protected@file@percent }
\@writefile{toc}{\contentsline {subsection}{\numberline {1.3.1}}{V}\protected@file@percent }
\@writefile{toc}{\contentsline {subsubsection}{Phagozyten}{V}\protected@file@percent }
\@writefile{toc}{\contentsline {subsection}{\numberline {1.3.2}}{VI}\protected@file@percent }
\@writefile{toc}{\contentsline {subsection}{\numberline {1.3.3}}{VI}\protected@file@percent }
\@writefile{toc}{\contentsline {subsubsection}{A - Bei einer Erstinfektion:}{VI}\protected@file@percent }
\@writefile{toc}{\contentsline {paragraph}{}{VI}\protected@file@percent }
\@writefile{toc}{\contentsline {subparagraph}{T-Helferzellen}{VI}\protected@file@percent }
\@writefile{toc}{\contentsline {subsubsection}{B - Bei einem Zweitkontakt}{VII}\protected@file@percent }
\@writefile{toc}{\contentsline {subsection}{\numberline {1.3.4}4.}{VII}\protected@file@percent }
\@writefile{toc}{\contentsline {paragraph}{T}{VII}\protected@file@percent }
\@setckpt{tex/Immunsystem}{
\setcounter{page}{8}
\setcounter{equation}{0}
\setcounter{enumi}{0}
\setcounter{enumii}{0}
\setcounter{enumiii}{0}
\setcounter{enumiv}{0}
\setcounter{footnote}{0}
\setcounter{mpfootnote}{0}
\setcounter{part}{0}
\setcounter{chapter}{1}
\setcounter{section}{3}
\setcounter{subsection}{4}
\setcounter{subsubsection}{0}
\setcounter{paragraph}{0}
\setcounter{subparagraph}{0}
\setcounter{figure}{0}
\setcounter{table}{0}
\setcounter{currfiledepth}{0}
}
