\relax 
\@writefile{toc}{\contentsline {section}{\numberline {1.1}mon vacances}{II}\protected@file@percent }
\@writefile{toc}{\contentsline {paragraph}{kure Geschichte}{II}\protected@file@percent }
\@writefile{toc}{\contentsline {section}{\numberline {1.2}Animal domestique}{II}\protected@file@percent }
\@writefile{toc}{\contentsline {subsection}{\numberline {1.2.1}Écris un commentaire de blog sur l'entrée de n° p.56}{II}\protected@file@percent }
\@writefile{toc}{\contentsline {subsection}{\numberline {1.2.2}Blog: Je voudrais avoir un animal domestique}{II}\protected@file@percent }
\@writefile{toc}{\contentsline {subsection}{\numberline {1.2.3}Mail: Mes dernières vacances}{III}\protected@file@percent }
\@writefile{toc}{\contentsline {section}{\numberline {1.3}Objektpronomen y}{III}\protected@file@percent }
\@writefile{toc}{\contentsline {paragraph}{1.p.e.}{III}\protected@file@percent }
\@setckpt{tex/u3}{
\setcounter{page}{4}
\setcounter{equation}{0}
\setcounter{enumi}{0}
\setcounter{enumii}{0}
\setcounter{enumiii}{0}
\setcounter{enumiv}{0}
\setcounter{footnote}{0}
\setcounter{mpfootnote}{0}
\setcounter{part}{0}
\setcounter{chapter}{1}
\setcounter{section}{3}
\setcounter{subsection}{0}
\setcounter{subsubsection}{0}
\setcounter{paragraph}{0}
\setcounter{subparagraph}{0}
\setcounter{figure}{0}
\setcounter{table}{0}
}
