\relax 
\@writefile{toc}{\contentsline {section}{\numberline {2.1}Grammatik}{VI}\protected@file@percent }
\@writefile{toc}{\contentsline {subsection}{\numberline {2.1.1}Fragen}{VI}\protected@file@percent }
\@writefile{toc}{\contentsline {subsubsection}{Intonationsfrage}{VI}\protected@file@percent }
\@writefile{toc}{\contentsline {subsubsection}{Est-ce que}{VI}\protected@file@percent }
\@writefile{toc}{\contentsline {subsection}{\numberline {2.1.2}Inversionsfrage}{VI}\protected@file@percent }
\@writefile{toc}{\contentsline {subsubsection}{Fragewörter}{VI}\protected@file@percent }
\@writefile{toc}{\contentsline {subsection}{\numberline {2.1.3}Le pronom objet en}{VI}\protected@file@percent }
\@writefile{toc}{\contentsline {paragraph}{Example}{VI}\protected@file@percent }
\@writefile{toc}{\contentsline {paragraph}{WO steht es}{VII}\protected@file@percent }
\@writefile{toc}{\contentsline {subsection}{\numberline {2.1.4}Objektpronomen}{VII}\protected@file@percent }
\@writefile{toc}{\contentsline {subsubsection}{Direkte Objektpronomen}{VII}\protected@file@percent }
\@writefile{toc}{\contentsline {subsubsection}{Indirekte Objektpronomen, bei Ergänzungen mit à --> Personen}{VII}\protected@file@percent }
\@writefile{toc}{\contentsline {paragraph}{Example}{VII}\protected@file@percent }
\@writefile{toc}{\contentsline {subsubsection}{Objektpronomen y}{VIII}\protected@file@percent }
\@writefile{toc}{\contentsline {paragraph}{Ortsergänzung}{VIII}\protected@file@percent }
\@writefile{toc}{\contentsline {paragraph}{Dinge}{VIII}\protected@file@percent }
\@writefile{toc}{\contentsline {section}{\numberline {2.2}Arbeitsauftrag U4}{VIII}\protected@file@percent }
\@writefile{toc}{\contentsline {subsection}{\numberline {2.2.1}Beschwerdedialog}{VIII}\protected@file@percent }
\@setckpt{tex/u4}{
\setcounter{page}{9}
\setcounter{equation}{0}
\setcounter{enumi}{0}
\setcounter{enumii}{0}
\setcounter{enumiii}{0}
\setcounter{enumiv}{0}
\setcounter{footnote}{0}
\setcounter{mpfootnote}{0}
\setcounter{part}{0}
\setcounter{chapter}{2}
\setcounter{section}{2}
\setcounter{subsection}{1}
\setcounter{subsubsection}{0}
\setcounter{paragraph}{0}
\setcounter{subparagraph}{0}
\setcounter{figure}{0}
\setcounter{table}{0}
}
