\relax 
\@writefile{toc}{\contentsline {section}{\numberline {3.1}Grammar}{X}\protected@file@percent }
\@writefile{toc}{\contentsline {subsection}{\numberline {3.1.1}L'impératif avec deux pronoms objets}{X}\protected@file@percent }
\@writefile{toc}{\contentsline {paragraph}{p.e.:}{X}\protected@file@percent }
\@writefile{toc}{\contentsline {subsubsection}{Impératif}{X}\protected@file@percent }
\@writefile{toc}{\contentsline {paragraph}{Aufbau}{X}\protected@file@percent }
\@writefile{toc}{\contentsline {paragraph}{Betonte Personalpronomen:}{X}\protected@file@percent }
\@setckpt{tex/u5}{
\setcounter{page}{11}
\setcounter{equation}{0}
\setcounter{enumi}{0}
\setcounter{enumii}{0}
\setcounter{enumiii}{0}
\setcounter{enumiv}{0}
\setcounter{footnote}{0}
\setcounter{mpfootnote}{0}
\setcounter{part}{0}
\setcounter{chapter}{3}
\setcounter{section}{1}
\setcounter{subsection}{1}
\setcounter{subsubsection}{0}
\setcounter{paragraph}{0}
\setcounter{subparagraph}{0}
\setcounter{figure}{0}
\setcounter{table}{0}
}
