\relax 
\@writefile{toc}{\contentsline {chapter}{\numberline {1}U3}{I}\protected@file@percent }
\@writefile{lof}{\addvspace {10\p@ }}
\@writefile{lot}{\addvspace {10\p@ }}
\@input{tex/u3.aux}
\@writefile{toc}{\contentsline {chapter}{\numberline {2}U4}{V}\protected@file@percent }
\@writefile{lof}{\addvspace {10\p@ }}
\@writefile{lot}{\addvspace {10\p@ }}
\@input{tex/u4.aux}
\@writefile{toc}{\contentsline {chapter}{\numberline {3}U5}{IX}\protected@file@percent }
\@writefile{lof}{\addvspace {10\p@ }}
\@writefile{lot}{\addvspace {10\p@ }}
\@input{tex/u5.aux}
